Get Member State Data — get_ms_data • euinfr
…
    See also

    Other functions in the euinfr package: get_decision_data() for decision-level data, get_case_data() for case-level data, and
get_dg_data() for time-varying DG-level data.

    Examples

# the number of letters of formal notice under Article 258
# that the Commission sent to the United Kingdom,
# France, and Germany in noncommunication cases
# for each year from 2010 through 2010

get_ms_data(year = c(2010, 2020), ms = c("UK", "FR", "DE"), type = "COMM", stage = "LFN258")
#> # A tibble: 33 x 6
#>    member_state  member_state_code  year decision_stage        case_type   count
#>    <chr>         <chr>             <int> <chr>                 <chr>       <int>
#>  1 France        FR                 2010 Letter of formal not… Noncommuni…    28
#>  2 Germany       DE                 2010 Letter of formal not… Noncommuni…    21
#>  3 United Kingd… UK                 2010 Letter of formal not… Noncommuni…    35
#>  4 France        FR                 2011 Letter of formal not… Noncommuni…    43
#>  5 Germany       DE                 2011 Letter of formal not… Noncommuni…    32
#>  6 United Kingd… UK                 2011 Letter of formal not… Noncommuni…    58
#>  7 France        FR                 2012 Letter of formal not… Noncommuni…    16
#>  8 Germany       DE                 2012 Letter of formal not… Noncommuni…    12
#>  9 United Kingd… UK                 2012 Letter of formal not… Noncommuni…    24
#> 10 France        FR                 2013 Letter of formal not… Noncommuni…    15
#> # … with 23 more rows
…
