Get Directorate-General Data — get_dg_data • euinfr
…
    See also

    Other functions in the euinfr package: get_decision_data() for decision-level data, get_case_data() for case-level data, and
get_ms_data() for time-varying member state-level data.

    Examples

# the number of letters of formal notice under Article 258
# sent by DG ENV and DG ENER in noncommunication cases
# for each year from 2010 through 2010

get_dg_data(year = c(2010, 2020), dg = c("ENV", "ENER"), type = "COMM", stage = "LFN258")
#> # A tibble: 22 x 6
#>    directorate_gene… directorate_gener…  year decision_stage    case_type  count
#>    <chr>             <chr>              <int> <chr>             <chr>      <int>
#>  1 Energy            ENER                2010 Letter of formal… Noncommun…     0
#>  2 Environment       ENV                 2010 Letter of formal… Noncommun…   169
#>  3 Energy            ENER                2011 Letter of formal… Noncommun…   140
#>  4 Environment       ENV                 2011 Letter of formal… Noncommun…    58
#>  5 Energy            ENER                2012 Letter of formal… Noncommun…    24
#>  6 Environment       ENV                 2012 Letter of formal… Noncommun…    63
#>  7 Energy            ENER                2013 Letter of formal… Noncommun…    33
#>  8 Environment       ENV                 2013 Letter of formal… Noncommun…   168
#>  9 Energy            ENER                2014 Letter of formal… Noncommun…    25
#> 10 Environment       ENV                 2014 Letter of formal… Noncommun…   127
#> # … with 12 more rows
…
